^C:\USERS\RENGO\SOURCE\REPOS\CONSOLEAPPLICATION6\DEBUG\CONSOLEAPPLICATION6.OBJ
C:\USERS\RENGO\SOURCE\REPOS\CONSOLEAPPLICATION6\DEBUG\CONSOLEAPPLICATION6.EXE
C:\USERS\RENGO\SOURCE\REPOS\CONSOLEAPPLICATION6\DEBUG\CONSOLEAPPLICATION6.ILK
C:\USERS\RENGO\SOURCE\REPOS\CONSOLEAPPLICATION6\DEBUG\CONSOLEAPPLICATION6.PDB
